%YAML 1.1
%TAG !u! tag:unity3d.com,2011:
--- !u!1045 &1
EditorBuildSettings:
  m_ObjectHideFlags: 0
  serializedVersion: 2
  m_Scenes:
  - enabled: 1
    path: Assets/Scenes/MenuInicial.unity
    guid: b32061360d5ae0646812e89e4923d6bd
  - enabled: 1
    path: Assets/Scenes/Quizz.unity
    guid: 2cda990e2423bbf4892e6590ba056729
  - enabled: 1
    path: Assets/Scenes/ComoJogar.unity
    guid: a0827bad1d3973e4f8870fb4f2d1233f
  - enabled: 1
    path: Assets/Scenes/Credito.unity
    guid: 362ce96ec8e1ab344a9b0ca472e7c01d
  m_configObjects: {}
